,qna_id,project_id,question_cleaned,reg_date,label
0,22493,3060,안녕하세요자동차 및 번호판 바운딩 프로젝트가 며칠동안 검수대기로 계속 있어서 혹시 누락이 되었는지 문의드려 봅니다,2020-05-26 03:27:28,0
1,22496,2582,질문하고자 하는 내용이 무엇입니까,2020-05-26 09:33:08,0
2,22497,2582,"질문이 완벽하지않고
물어보는 내용을 모르겠어요",2020-05-26 09:34:52,0
3,22499,0,흉부CT면 폐 CT를 보내면 되는 건가요폐CT촬영했던게 있어서 병원에 물어보니 폐 CT가 흉부 CT라며 같은거라고 하시는데요 보내기전 한 번 더 확인차 여쭤봅니다 ,2020-05-26 09:50:05,0
4,22500,3081,작업 제한이 되었는데 검수는 빠르게 되는건가요3건에 대해 검수 후 작업 제한이 풀리는것같은데 빠른 답변 부탁드리겠습니다,2020-05-26 10:23:47,0
5,22501,0,모바일로만 가능하다고 하는 프로젝트들이 있는데모바일에서는 안뜨네요이럴 땐 어떻게 해야하나요,2020-05-26 10:34:04,0
6,22502,0,본인 것만 해당하나요 컴퓨터가 고장이나서 가이드를 확인할수없어서 문의합니다 죄송합니다 ㅠ ,2020-05-26 10:51:47,0
7,22503,3074,흉부 xray 나 복부ct 가능할까요,2020-05-26 10:54:28,0
8,22504,3100,작업 재미있네요 그렇지만 작업창이 너무 옆으로 길어 문의드려요,2020-05-26 10:59:27,0
9,22505,3099,작업가이드 상에는 모든제품을 개별 작업하라고 되어있긴한데이미지상에 바운딩한 제품 이미지 선택란에 없는 상품은 어떻게 해야하나요23건 정도는 이미지 선택 가능한 제품만 바운딩작업하고 넘겼는데여러건 나오니까 이렇게 해도 되는건가 싶어서 문의 드립니다,2020-05-26 11:01:39,0
10,22509,3100,앞면을 선택하면 제품명과 상태를 선택하라고 계속 나옵니다,2020-05-26 11:12:27,0
11,22510,3100,다음진행이 안되요,2020-05-26 11:12:31,0
12,22514,3074,문의를 드렸습니다만 제 문의의 요지를 잘못 파악하신거같아서 다시 올립니다스샷을 첨부 해드릴건데 제가 물어보고 싶은 말은3가지 영상을 한번에 메일로 보내드렸고 작업을 3번 반복했습니다 이렇게 작업을 하는것이 맞는건지 물어본것입니다3가지 영상을 보내고 한번만 작업을 해도 각각 영상이 따로 검수가 되서 포인트가 3번 들어오게 되는지 궁금한것입니다혹시나해서 3번 작업을 반복했습니다,2020-05-26 11:58:00,0
13,22515,3100,안녕하세요편의점 제품 바운딩 프로젝트 2 제품 상태 선택시 육각형 상품의 앞면을 선택하고 저장을 누르면 오류메시지가 나와요 몇 번 반복하다가 해당건은 윗면으로 선택하니 저장되네요 움 앞면인뎅 ㅜㅜ오류인듯 해요편의점 제품 바운딩 프로젝트 1선택상품이 다 보이질 않네요 캐시삭제해도 안보여용 ㅜㅜ,2020-05-26 12:08:11,0
14,22520,2580,바운딩 상 과정 진행중에 쥬시쿨 바운딩입니다상단의 빙그레 옆 로고가 있는데 범위가 틀리다고 계속 나옵니다 혹시 이부분이 바운딩 영역이 아닌데 오류로 인해 인식되어 계속 반려되는게 아닌가 궁금합니다로고도 바운딩에 포함이 되는가요,2020-05-26 14:22:36,0
15,22521,2576,"몇십번을 재등록 했지만 안좋은 화질과 그림자 때문에 도대체
머리가 어떻게 생긴지 알수가 없네요 새로운 가이드 라인을 봐도
그전과 도움되는 정보는 없었습니다",2020-05-26 14:22:45,0
16,22523,2576,반려되고 수정하는 재작업만 10번째 범위 문의합니다,2020-05-26 14:26:56,0
17,22524,0,흉부 ct 자료가 cd에 있는데 영상자료만 가능한건지 아니면흉부ct사진도 제출이 가능한지 문의드립니다,2020-05-26 14:34:22,0
18,22526,0,몇년전 영상도 가능한가요 ,2020-05-26 14:48:20,0
19,22528,2577,안뇽하세요 다름이 아니라 바운딩 작업을 하려고 들어가면 계속 작업 데이터 할당 받지 못했습니다 새로 고침해 주세요 이 문구만 뜹니다 1개 이미지만 작업한 상태입니다 어떻게 하면 계속 바운딩 작업을 할 수 있을까요,2020-05-26 15:35:56,0
20,22529,3074,폐 CT 곧 촬영 예정이라 크라우드웍스에서 수집하는 흉부 CT와 같은 건지 궁금해서 문의합니다,2020-05-26 17:35:55,0
21,22530,3074,CT 영상이 존재하는데 자료조사 때 썼던 파일이라 기저질환 및 나이나 성별 등이 없습니다기저질환 및 나이나 성별 등 개인정보가 기재되어 있지않은 파일도 문제없나요,2020-05-26 17:55:14,0
22,22531,2575,일정횟수이상 반려되면 힌트라도 있었으면 좋겠습니다 답답하네요 쥬시쿨 우리엄마 콩자반 두개에서 계속 반려되네요,2020-05-26 18:15:21,0
23,22532,3081,아이돌바운딩_프로미스9 3건을 마쳤는데 검수후 작업제한이 풀린다고 기재되어있는데요 이미 다른분들은 작업을 진행하고 계시는것같은데 저의 경우 검수가 왜이렇게 오래걸리는건지검수자님께 전해주실수있는지 빠른 답변 부탁드리겠습니다,2020-05-26 18:36:27,0
24,22534,3074,검수언제되나요 ,2020-05-26 20:24:28,0
25,22535,3102,화면이 나타나지 않아 작업이 안되요,2020-05-26 20:42:26,0
26,22536,0,흉부CT영상은 CT를 촬영한 동영상을 말하는 건가요 아니면 사진 한장이어도 상관이 없나요,2020-05-26 20:51:10,0
27,22537,3081,지금 작업한지 20시간정도 지난거 같은데 검수가 안되고 있는 이유가 있을까요ㅠ프로미스9 멤버 다 알아서 잘 할 수 있는데 검수가 안되서 반려도 안되니 무슨 문제인지도 잘 모르겠네요원래 이렇게 오래걸리는건가요,2020-05-26 21:55:01,0
28,22539,3074, CT촬영할 일이 없는데 클릭실수로 작업중인걸로 계속떠있는데 다시 없애거나 작업포기할수는 없나요,2020-05-26 23:21:23,0
29,22492,3087,정상적으로 녹음 후 마지막 문장에서 오류 발생하였습니다 컴퓨터 로그인 화면 이동 6월엔 아몬드 봉봉봉  봉봉봉 아몬드 봉봉봉 두 프로젝트 모두 음성입력 하였으나 동일하게 마지막에 오류 발생합니다 조치를 취해주시기 바랍니다 ,2020-05-26 00:55:10,1
30,22494,3081,안녕하세요내용에 10건이 제한작업수로 표시돼 있는데 3건만에 제한작업수가 되어 버렸습니다확인 부탁드립니다,2020-05-26 06:42:13,1
31,22512,3100,안녕하세요 바운딩 후 제품상태 선택시 앞면을 선택하면 저장이 되지 않습니다 그래서 우선 맞지 않는 제품상태를 선택하여 저장 처리했습니다 화면 캡쳐 첨부합니다 그리고 제품상태 잘못 선택하여 재선택하고자 바운딩건 더블클릭 후 수정시 제품상태 등이 수정 저장되지 않습니다 확인 부탁드려요 ,2020-05-26 11:39:39,1
32,22513,3100,앞면이 보이는 제품을 바운딩 후 태깅하고 저장할때제품 상태와 이미지를 모두 선택하라는 창이 자꾸 뜹니다오류 수정해주세요,2020-05-26 11:51:25,1
33,22516,3100,안녕하세요앞면을 선택하여 저장을 하려고 하는데 저장이 되질 않습니다,2020-05-26 12:50:33,1
34,22519,3100,"앞면과 이미지 선택하였는데 저장이 안됩니다
제품 상태와 이미지를 모두 선택해 주세요  이렇게 나오네요",2020-05-26 14:05:18,1
35,22525,3100,반려가 왔는데 제품  상태 선택에서 앞면을 선택하면 저장이 안돼는 오류 때문에 수정을 못하고 있습니다오류 수정 부탁드립니다,2020-05-26 14:37:37,1
36,22527,3100,알려주신대로 캐쉬 삭제하고 다른 부분까지 삭제해보고 재부팅하고 해봤는데제품업데이트 된 것은 해결되었는데 여전히 앞면 저장이 안됩니다제품 상태와 이미지를 모두 선택해 주세요 라고 나오네요담당자님 확인 부탁드립니다,2020-05-26 14:50:23,1
37,22506,3099,사진에 나오는 제품이 바운딩 후 선택하는 제품목록에 없어요,2020-05-26 11:01:44,2
38,22507,3100,앞면 선택시 제품과 산태를 선택해달라고 계속 뜹니다 그리고 1에서는 헛개수가 없어요,2020-05-26 11:08:54,2
39,22508,3099,"바운딩 후 제품 선택할 때 제품이 없는 경우는 어떻게 해야 할까요
바운딩을 취소해야 하나요

또 다른 경우로 제품명은 같지만 포장지가 다른 경우는 어떻게 작업해야 할까요
바운딩을 취소해야 하나요",2020-05-26 11:10:06,2
40,22511,3099,그림에 있는 제품에 리스트에 없어요,2020-05-26 11:16:34,2
41,22533,3101,제품이 리스트에 없어요,2020-05-26 19:53:01,2
42,22538,2575,작업한 데이터가 우측에 표시가 되어야하는데 우측화면이 짤린건지 반려가 나도 어떤게 반려가 났는지 알수가 없어요 화면크기 조절은 어떻게 하는건가요ㅠㅠ,2020-05-26 22:00:20,2
